[gd_scene load_steps=4 format=2]

[ext_resource path="res://El Tombo.gd" type="Script" id=1]
[ext_resource path="res://Tombo/Car_2_01.png" type="Texture" id=2]

[sub_resource type="CapsuleShape2D" id=1]
radius = 54.9742
height = 176.204

[node name="El Tombo" type="KinematicBody2D"]
position = Vector2( 417.656, 307.218 )
scale = Vector2( 0.3, 0.3 )
script = ExtResource( 1 )
__meta__ = {
"_edit_group_": true
}

[node name="Sprite" type="Sprite" parent="."]
scale = Vector2( 0.2, 0.2 )
texture = ExtResource( 2 )

[node name="CollisionShape2D" type="CollisionShape2D" parent="."]
position = Vector2( -3.0459, -2.03064 )
shape = SubResource( 1 )
